…
> Yes, we need to change “child” to “new_child.”

### Pivoting the Data Longer

We want to restructure the data so we can plot trends in response over
time such that `year` is its own variable with the cell values in a
column called `count`. Assign the results to the object name `new_child`

``` r
new_child %>% 
  pivot_longer(cols = 2:11, names_to = "year", values_to = "count") 
```

    # A tibble: 60 × 3
       Label      year  count
       <chr>      <chr> <dbl>
     1 Too little 2000   1678
     2 Too little 2002   1533
     3 Too little 2004   1518
     4 Too little 2006   1544
     5 Too little 2008   1024
     6 Too little 2010    982
     7 Too little 2012    890
     8 Too little 2014   1203
     9 Too little 2016   1556
    10 Too little 2018   1345
    # … with 50 more rows
…
